name,weight,color,age,fur
Том,4,белый,5,длинная
Том,9,белый,9,длинная
Барсик,5,черный,5,длинная
Барсик,4,серый,4,короткая
Мурка,3,черный,2,короткая
Мурка,4,черный,7,короткая
Мурка,7,черный,12,короткая
Мурка,5,черный,3,короткая
Пушок,6,рыжий,6,длинная
Пушок,9,рыжий,14,длинная
Барон,8,белый,11,короткая
Барон,7,белый,10,короткая
Барон,2,белый,1,короткая
